# Fdb version 3
["pdflatex"] 1595337415 "/Users/leonardbrenk/Documents/Uni/texmerken/main.tex" "/Users/leonardbrenk/Documents/Uni/texmerken/main.pdf" "main" 1595337980
  "/Users/leonardbrenk/Documents/Uni/texmerken/main.aux" 1595337436 3084 266b1efe3c46ee1b9419219f20a3a10d ""
  "/Users/leonardbrenk/Documents/Uni/texmerken/main.tex" 1595337979 3406 f958178430826906254640f2048c5f9f ""
  "/usr/local/texlive/2019/texmf-dist/fonts/map/fontname/texfonts.map" 1511824771 3332 103109f5612ad95229751940c61aada0 ""
  "/usr/local/texlive/2019/texmf-dist/fonts/tfm/public/cm/cmbx10.tfm" 1136768653 1328 c834bbb027764024c09d3d2bf908b5f0 ""
  "/usr/local/texlive/2019/texmf-dist/fonts/tfm/public/cm/cmbx12.tfm" 1136768653 1324 c910af8c371558dc20f2d7822f66fe64 ""
  "/usr/local/texlive/2019/texmf-dist/fonts/tfm/public/cm/cmmi12.tfm" 1136768653 1524 4414a8315f39513458b80dfc63bff03a ""
  "/usr/local/texlive/2019/texmf-dist/fonts/tfm/public/cm/cmmi6.tfm" 1136768653 1512 f21f83efb36853c0b70002322c1ab3ad ""
  "/usr/local/texlive/2019/texmf-dist/fonts/tfm/public/cm/cmmi8.tfm" 1136768653 1520 eccf95517727cb11801f4f1aee3a21b4 ""
  "/usr/local/texlive/2019/texmf-dist/fonts/tfm/public/cm/cmr12.tfm" 1136768653 1288 655e228510b4c2a1abe905c368440826 ""
  "/usr/local/texlive/2019/texmf-dist/fonts/tfm/public/cm/cmr17.tfm" 1136768653 1292 296a67155bdbfc32aa9c636f21e91433 ""
  "/usr/local/texlive/2019/texmf-dist/fonts/tfm/public/cm/cmr6.tfm" 1136768653 1300 b62933e007d01cfd073f79b963c01526 ""
  "/usr/local/texlive/2019/texmf-dist/fonts/tfm/public/cm/cmr8.tfm" 1136768653 1292 21c1c5bfeaebccffdb478fd231a0997d ""
  "/usr/local/texlive/2019/texmf-dist/fonts/tfm/public/cm/cmsy10.tfm" 1136768653 1124 6c73e740cf17375f03eec0ee63599741 ""
  "/usr/local/texlive/2019/texmf-dist/fonts/tfm/public/cm/cmsy6.tfm" 1136768653 1116 933a60c408fc0a863a92debe84b2d294 ""
  "/usr/local/texlive/2019/texmf-dist/fonts/tfm/public/cm/cmsy8.tfm" 1136768653 1120 8b7d695260f3cff42e636090a8002094 ""
  "/usr/local/texlive/2019/texmf-dist/fonts/type1/public/amsfonts/cm/cmbx10.pfb" 1248133631 34811 78b52f49e893bcba91bd7581cdc144c0 ""
  "/usr/local/texlive/2019/texmf-dist/fonts/type1/public/amsfonts/cm/cmbx12.pfb" 1248133631 32080 340ef9bf63678554ee606688e7b5339d ""
  "/usr/local/texlive/2019/texmf-dist/fonts/type1/public/amsfonts/cm/cmr10.pfb" 1248133631 35752 024fb6c41858982481f6968b5fc26508 ""
  "/usr/local/texlive/2019/texmf-dist/fonts/type1/public/amsfonts/cm/cmr12.pfb" 1248133631 32722 d7379af29a190c3f453aba36302ff5a9 ""
  "/usr/local/texlive/2019/texmf-dist/fonts/type1/public/amsfonts/cm/cmr17.pfb" 1248133631 32362 179c33bbf43f19adbb3825bb4e36e57a ""
  "/usr/local/texlive/2019/texmf-dist/fonts/type1/public/amsfonts/cm/cmr6.pfb" 1248133631 32734 69e00a6b65cedb993666e42eedb3d48f ""
  "/usr/local/texlive/2019/texmf-dist/fonts/type1/public/amsfonts/cm/cmr7.pfb" 1248133631 32762 224316ccc9ad3ca0423a14971cfa7fc1 ""
  "/usr/local/texlive/2019/texmf-dist/fonts/type1/public/amsfonts/cm/cmr8.pfb" 1248133631 32726 0a1aea6fcd6468ee2cf64d891f5c43c8 ""
  "/usr/local/texlive/2019/texmf-dist/fonts/type1/public/amsfonts/cm/cmsy10.pfb" 1248133631 32569 5e5ddc8df908dea60932f3c484a54c0d ""
  "/usr/local/texlive/2019/texmf-dist/fonts/type1/public/amsfonts/cm/cmti8.pfb" 1248133631 35660 fb24af7afbadb71801619f1415838111 ""
  "/usr/local/texlive/2019/texmf-dist/fonts/type1/public/amsfonts/cm/cmtt8.pfb" 1248133631 24287 6b803fa9eb1ddff9112e00519b09dd9e ""
  "/usr/local/texlive/2019/texmf-dist/tex/context/base/mkii/supp-pdf.mkii" 1461363279 71627 94eb9990bed73c364d7f53f960cc8c5b ""
  "/usr/local/texlive/2019/texmf-dist/tex/generic/ifxetex/ifxetex.sty" 1284331290 1458 43ab4710dc82f3edeabecd0d099626b2 ""
  "/usr/local/texlive/2019/texmf-dist/tex/generic/oberdiek/atbegshi.sty" 1465595255 24580 144573175d90c8e36676f97ae1d11ec2 ""
  "/usr/local/texlive/2019/texmf-dist/tex/generic/oberdiek/etexcmds.sty" 1463608860 7612 729a8cc22a1ee0029997c7f74717ae05 ""
  "/usr/local/texlive/2019/texmf-dist/tex/generic/oberdiek/ifluatex.sty" 1463608860 7324 2310d1247db0114eb4726807c8837a0e ""
  "/usr/local/texlive/2019/texmf-dist/tex/generic/oberdiek/ifpdf.sty" 1536443070 1300 96620a7d94bc0ceb261d968770ce8315 ""
  "/usr/local/texlive/2019/texmf-dist/tex/generic/oberdiek/infwarerr.sty" 1463608860 8253 473e0e41f9adadb1977e8631b8f72ea6 ""
  "/usr/local/texlive/2019/texmf-dist/tex/generic/oberdiek/kvdefinekeys.sty" 1463608860 5152 b67a3a964ad9851e095110c854a1d461 ""
  "/usr/local/texlive/2019/texmf-dist/tex/generic/oberdiek/kvsetkeys.sty" 1463608860 14040 ac8866aac45982ac84021584b0abb252 ""
  "/usr/local/texlive/2019/texmf-dist/tex/generic/oberdiek/ltxcmds.sty" 1463608860 18425 5b3c0c59d76fac78978b5558e83c1f36 ""
  "/usr/local/texlive/2019/texmf-dist/tex/generic/oberdiek/pdftexcmds.sty" 1536701967 20457 0d2e642faacbb41c9d72690f8cc529cd ""
  "/usr/local/texlive/2019/texmf-dist/tex/latex/base/article.cls" 1544567569 19933 3097d1b31d3c45dc957096f554529032 ""
  "/usr/local/texlive/2019/texmf-dist/tex/latex/base/ifthen.sty" 1523050425 5161 c004ea5a189d4bdcf42e86754ad75a58 ""
  "/usr/local/texlive/2019/texmf-dist/tex/latex/base/inputenc.sty" 1544567569 5052 b64c57f4a38aae0d2745f8298fa50814 ""
  "/usr/local/texlive/2019/texmf-dist/tex/latex/base/size10.clo" 1544567569 8294 6d6e23d5169c0d89d173f6c7e08a005a ""
  "/usr/local/texlive/2019/texmf-dist/tex/latex/eso-pic/eso-pic.sty" 1526160256 11991 c1669f88e13f8bb6243df144e456b477 ""
  "/usr/local/texlive/2019/texmf-dist/tex/latex/graphics-cfg/color.cfg" 1459978653 1213 620bba36b25224fa9b7e1ccb4ecb76fd ""
  "/usr/local/texlive/2019/texmf-dist/tex/latex/graphics-cfg/graphics.cfg" 1465944070 1224 978390e9c2234eab29404bc21b268d1e ""
  "/usr/local/texlive/2019/texmf-dist/tex/latex/graphics-def/pdftex.def" 1515537368 17334 520b9b85ad8a2a48eda3f643e27a5179 ""
  "/usr/local/texlive/2019/texmf-dist/tex/latex/graphics/graphics.sty" 1523134385 15272 5a97061616e0c8b2aa79c6615ff769f4 ""
  "/usr/local/texlive/2019/texmf-dist/tex/latex/graphics/graphicx.sty" 1523134385 9063 d0a305975932762117cd1f06a582f896 ""
  "/usr/local/texlive/2019/texmf-dist/tex/latex/graphics/keyval.sty" 1523134385 2591 6404d0c7d28505fb38ce0d86c2e28ae7 ""
  "/usr/local/texlive/2019/texmf-dist/tex/latex/graphics/lscape.sty" 1523134385 1754 456e1ddf48323a62f9e0fbc379de63a3 ""
  "/usr/local/texlive/2019/texmf-dist/tex/latex/graphics/trig.sty" 1523134385 3977 cb9221976ed8a183afad65b59aa8629a ""
  "/usr/local/texlive/2019/texmf-dist/tex/latex/latexconfig/epstopdf-sys.cfg" 1279039959 678 4792914a8f45be57bb98413425e4c7af ""
  "/usr/local/texlive/2019/texmf-dist/tex/latex/oberdiek/epstopdf-base.sty" 1463608860 12095 5337833c991d80788a43d3ce26bd1c46 ""
  "/usr/local/texlive/2019/texmf-dist/tex/latex/oberdiek/grfext.sty" 1463608860 7075 2fe3d848bba95f139de11ded085e74aa ""
  "/usr/local/texlive/2019/texmf-dist/tex/latex/oberdiek/kvoptions.sty" 1463608860 22417 1d9df1eb66848aa31b18a593099cf45c ""
  "/usr/local/texlive/2019/texmf-dist/tex/latex/oberdiek/pdflscape.sty" 1463348357 6688 c84de1eae6cda82865a6d3d09e339ec9 ""
  "/usr/local/texlive/2019/texmf-dist/tex/latex/pdfpages/pdfpages.sty" 1509485055 52989 80e784f009ef46fd8220535bd14a7d82 ""
  "/usr/local/texlive/2019/texmf-dist/tex/latex/pdfpages/pppdftex.def" 1509485055 6364 ca3f15bd79c5439d528d1a286b3405c1 ""
  "/usr/local/texlive/2019/texmf-dist/tex/latex/tools/calc.sty" 1523050425 10212 357072c1d20578a30d6387d8a22e72ab ""
  "/usr/local/texlive/2019/texmf-dist/tex/latex/xcolor/xcolor.sty" 1463002160 55589 34128738f682d033422ca125f82e5d62 ""
  "/usr/local/texlive/2019/texmf-dist/web2c/texmf.cnf" 1557092114 35484 cb1661360667bf4db662a8895053b554 ""
  "/usr/local/texlive/2019/texmf-var/fonts/map/pdftex/updmap/pdftex.map" 1557342064 3277517 23507ed665b4dd9046f0f2a94bbef2be ""
  "/usr/local/texlive/2019/texmf-var/web2c/pdftex/pdflatex.fmt" 1558030521 4259636 972de62f07200b1cf4175b2abbebd317 ""
  "/usr/local/texlive/2019/texmf.cnf" 1557341546 577 d150fef99ac436ad1156e86b0892f6ef ""
  "S1/Ana1.pdf" 1592379250 35168575 0ba12d44b94a01a457038ee37edc79e2 ""
  "S1/Lads1.pdf" 1592379364 34514598 95d0d75d8b87de0187a99c065198b4c6 ""
  "S1/Pro1.pdf" 1592379189 49762371 a6392849b4d97101c317257e5ac8f022 ""
  "S2/AD1.pdf" 1592379574 69542625 293c7cf6375e35ec537daa442e598ff6 ""
  "S2/ANA2.pdf" 1592379407 15680296 d057f39808e889ab7ca8171a42a1623f ""
  "S2/CS1.pdf" 1592379615 46561191 2f97643f84c2a65decb8d036f26e0c30 ""
  "S3/LOG1.pdf" 1592379879 18257003 e0a6bd36467b118c6b3dd49d4d065bf1 ""
  "S3/SWE1.pdf" 1592379978 122573369 6894ed4931dbc8e50d2495f8930f7e19 ""
  "S3/TI1.pdf" 1592379832 66915649 9939561334b6021ffc3def3fd85fecb5 ""
  "S4/Betnet.pdf" 1595337137 59706305 decc8bd29634563ce29fe015ee52eace ""
  "S4/Compnet.pdf" 1595337357 307786687 e98ca159b0c09288091bc3b6ec47f588 ""
  "S4/Db.pdf" 1595336743 99617387 e958e2956a187f6ef6cecb7459f49df7 ""
  "S4/Ra.pdf" 1595336654 52130585 69d54b840778e225148dd0bde2ae7b99 ""
  "S4/St.pdf" 1595336817 34241503 c3f232701b4bee4832d6f79b112beb42 ""
  "Spick/Ana2_spick.pdf" 1594120017 3713468 faf61ce93d4d81764e3fcd4aa38cc38e ""
  "Spick/Ana_spick.pdf" 1594120017 3839106 e4ee245a4a66d3be0aa17ddf340d895c ""
  "Spick/CSMerkzettel.pdf" 1594120584 5736580 e2bb0ee2bad438e0ecd5c6fb83290b80 ""
  "Spick/Lads1_spick.pdf" 1594120017 4962274 842c66c3129f5310af4639c04c293e42 ""
  "Spick/Lads2_spick.pdf" 1594120017 4659345 c4b6c803d3928fcb14adb9da7e21467e ""
  "Spick/Sweng_spick.pdf" 1594120022 11595179 bc494b9969b07fbe21788625d5e148a9 ""
  "main.aux" 1595337436 3084 266b1efe3c46ee1b9419219f20a3a10d "pdflatex"
  "main.tex" 1595337979 3406 f958178430826906254640f2048c5f9f ""
  "main.toc" 1595337436 1996 575a21c9dd4e4929c872d975848c228f "pdflatex"
  (generated)
  "/Users/leonardbrenk/Documents/Uni/texmerken/main.log"
  "main.aux"
  "main.pdf"
  "main.log"
  "/Users/leonardbrenk/Documents/Uni/texmerken/main.pdf"
  "main.toc"
