\contentsline {section}{\numberline {1}Semester 1}{4}% 
\contentsline {subsection}{\numberline {1.1}Analysis 1}{5}% 
\contentsline {subsection}{\numberline {1.2}Lineare Algebra und Diskrete Strukturen}{19}% 
\contentsline {subsection}{\numberline {1.3}Einf\IeC {\"u}hrung in die Programmierung}{34}% 
\contentsline {section}{\numberline {2}Semester 2}{49}% 
\contentsline {subsection}{\numberline {2.1}Algorithmen und Datenstrukturen}{50}% 
\contentsline {subsection}{\numberline {2.2}Analysis 2}{68}% 
\contentsline {subsection}{\numberline {2.3}Codierung und Sicherheit}{73}% 
\contentsline {subsection}{\numberline {2.4}Lineare Algebra und Diskrete Strukturen 2}{82}% 
\contentsline {subsection}{\numberline {2.5}Technische Grundlagen der Informatik 1}{100}% 
\contentsline {section}{\numberline {3}Semester 3}{118}% 
\contentsline {subsection}{\numberline {3.1}Einf\IeC {\"u}hrung in die Logik}{119}% 
\contentsline {subsection}{\numberline {3.2}Software Engineering}{123}% 
\contentsline {subsection}{\numberline {3.3}Theoretische Informatik}{142}% 
\contentsline {section}{\numberline {4}Semester 4}{154}% 
\contentsline {subsection}{\numberline {4.1}Betriebssysteme und Computernetze}{155}% 
\contentsline {subsection}{\numberline {4.2}Datenbanken}{184}% 
\contentsline {subsection}{\numberline {4.3}Rechnerarchitektur}{198}% 
\contentsline {subsection}{\numberline {4.4}Stochastik}{206}% 
\contentsline {section}{\numberline {5}Spickzettel}{213}% 
\contentsline {subsection}{\numberline {5.1}Analysis 1}{213}% 
\contentsline {subsection}{\numberline {5.2}Analysis 2}{216}% 
\contentsline {subsection}{\numberline {5.3}Lineare Algebra und Diskrete Strukturen 1}{219}% 
\contentsline {subsection}{\numberline {5.4}Lineare Algebra und Diskrete Strukturen 2}{222}% 
\contentsline {subsection}{\numberline {5.5}Codierung und Sicherheit}{225}% 
\contentsline {subsection}{\numberline {5.6}Software Engineering}{228}% 
\contentsline {subsection}{\numberline {5.7}Theoretische Informatik}{233}% 
