\relax 
\@writefile{toc}{\contentsline {section}{\numberline {1}Semester 1}{4}\protected@file@percent }
\@writefile{toc}{\contentsline {subsection}{\numberline {1.1}Analysis 1}{5}\protected@file@percent }
\@writefile{toc}{\contentsline {subsection}{\numberline {1.2}Lineare Algebra und Diskrete Strukturen}{19}\protected@file@percent }
\@writefile{toc}{\contentsline {subsection}{\numberline {1.3}Einf\IeC {\"u}hrung in die Programmierung}{34}\protected@file@percent }
\@writefile{toc}{\contentsline {section}{\numberline {2}Semester 2}{49}\protected@file@percent }
\@writefile{toc}{\contentsline {subsection}{\numberline {2.1}Algorithmen und Datenstrukturen}{50}\protected@file@percent }
\@writefile{toc}{\contentsline {subsection}{\numberline {2.2}Analysis 2}{68}\protected@file@percent }
\@writefile{toc}{\contentsline {subsection}{\numberline {2.3}Codierung und Sicherheit}{73}\protected@file@percent }
\@writefile{toc}{\contentsline {subsection}{\numberline {2.4}Lineare Algebra und Diskrete Strukturen 2}{82}\protected@file@percent }
\@writefile{toc}{\contentsline {subsection}{\numberline {2.5}Technische Grundlagen der Informatik 1}{100}\protected@file@percent }
\@writefile{toc}{\contentsline {section}{\numberline {3}Semester 3}{118}\protected@file@percent }
\@writefile{toc}{\contentsline {subsection}{\numberline {3.1}Einf\IeC {\"u}hrung in die Logik}{119}\protected@file@percent }
\@writefile{toc}{\contentsline {subsection}{\numberline {3.2}Software Engineering}{123}\protected@file@percent }
\@writefile{toc}{\contentsline {subsection}{\numberline {3.3}Theoretische Informatik}{142}\protected@file@percent }
\@writefile{toc}{\contentsline {section}{\numberline {4}Semester 4}{154}\protected@file@percent }
\@writefile{toc}{\contentsline {subsection}{\numberline {4.1}Betriebssysteme und Computernetze}{155}\protected@file@percent }
\@writefile{toc}{\contentsline {subsection}{\numberline {4.2}Datenbanken}{184}\protected@file@percent }
\@writefile{toc}{\contentsline {subsection}{\numberline {4.3}Rechnerarchitektur}{198}\protected@file@percent }
\@writefile{toc}{\contentsline {subsection}{\numberline {4.4}Stochastik}{206}\protected@file@percent }
\@writefile{toc}{\contentsline {section}{\numberline {5}Spickzettel}{213}\protected@file@percent }
\@writefile{toc}{\contentsline {subsection}{\numberline {5.1}Analysis 1}{213}\protected@file@percent }
\@writefile{toc}{\contentsline {subsection}{\numberline {5.2}Analysis 2}{216}\protected@file@percent }
\@writefile{toc}{\contentsline {subsection}{\numberline {5.3}Lineare Algebra und Diskrete Strukturen 1}{219}\protected@file@percent }
\@writefile{toc}{\contentsline {subsection}{\numberline {5.4}Lineare Algebra und Diskrete Strukturen 2}{222}\protected@file@percent }
\@writefile{toc}{\contentsline {subsection}{\numberline {5.5}Codierung und Sicherheit}{225}\protected@file@percent }
\@writefile{toc}{\contentsline {subsection}{\numberline {5.6}Software Engineering}{228}\protected@file@percent }
\@writefile{toc}{\contentsline {subsection}{\numberline {5.7}Theoretische Informatik}{233}\protected@file@percent }
